…
``` r
library("RHL30")
library("dplyr")
#> 
#> Attaching package: 'dplyr'
#> The following objects are masked from 'package:stats':
#> 
#>     filter, lag
#> The following objects are masked from 'package:base':
#> 
#>     intersect, setdiff, setequal, union
rhl30_model_df <- get_rhl30_model_coef_df()
rhl30_model_df
#> # A tibble: 30 x 4
#>    gene_name refseq_mrna_id gene_type   coefficient
#>    <chr>     <chr>          <chr>             <dbl>
#>  1 ACTB      NM_001101.2    housekeeper          NA
#>  2 ALAS1     NM_000688.4    housekeeper          NA
#>  3 CLTC      NM_004859.2    housekeeper          NA
#>  4 GAPDH     NM_002046.3    housekeeper          NA
#>  5 GUSB      NM_000181.1    housekeeper          NA
#>  6 PGK1      NM_000291.2    housekeeper          NA
#>  7 POLR2A    NM_000937.2    housekeeper          NA
#>  8 RPL19     NM_000981.3    housekeeper          NA
#>  9 RPLP0     NM_001002.3    housekeeper          NA
#> 10 SDHA      NM_004168.1    housekeeper          NA
#> # … with 20 more rows
```
…
